<?xml version="1.0" standalone="no"?>
<!DOCTYPE svg PUBLIC "-//W3C//DTD SVG 20010904//EN"
 "http://www.w3.org/TR/2001/REC-SVG-20010904/DTD/svg10.dtd">
<svg version="1.0" xmlns="http://www.w3.org/2000/svg"
 width="190.084513pt" height="364.748807pt" viewBox="0 0 190.084513 364.748807"
 preserveAspectRatio="xMidYMid meet">
<metadata>
Created by potrace 1.12, written by Peter Selinger 2001-2015
</metadata>
<g transform="translate(-4.988007,383.000000) scale(0.100000,-0.100000)"
fill="#000000" stroke="none">
<path d="M663 3823 c3 -5 -134 -141 -303 -303 l-308 -295 -1 -97 -1 -96 62 64
c33 35 65 64 70 64 4 0 8 -54 8 -120 0 -103 -3 -123 -18 -137 -10 -10 -42 -40
-70 -66 l-52 -48 0 -95 0 -95 68 68 c59 60 67 65 70 46 3 -22 7 -23 123 -23
65 0 119 -4 119 -9 0 -4 -34 -40 -75 -80 l-76 -71 108 0 108 1 82 79 82 80
136 0 c74 0 135 -4 135 -8 0 -5 -34 -41 -76 -80 l-76 -72 93 0 94 1 85 79 85
79 143 1 c78 0 142 -3 142 -6 0 -4 -35 -40 -77 -80 l-78 -73 95 0 95 -1 84 78
84 77 91 5 91 5 3 90 3 90 62 57 c34 32 65 58 70 58 4 0 7 46 7 101 l0 101
-67 -65 -68 -66 -5 77 -5 77 -62 5 -63 5 120 114 120 113 -42 47 c-24 25 -46
46 -50 46 -3 0 -81 -73 -172 -162 l-165 -163 -141 0 -142 0 179 173 c98 95
209 202 246 237 l68 65 -43 52 c-24 29 -48 52 -54 52 -10 1 -189 -167 -484
-456 l-125 -123 -150 0 -150 0 105 105 c101 101 103 105 86 124 -9 10 -20 41
-24 67 l-7 49 -140 -136 c-77 -75 -159 -152 -181 -172 l-41 -37 -124 0 -124 1
182 177 c100 97 240 234 311 305 l130 127 -105 0 c-57 0 -102 -3 -100 -7z
m895 -665 c113 -43 181 -133 168 -223 -10 -63 -58 -123 -131 -160 l-59 -30
-525 -3 c-470 -2 -530 -1 -578 14 -89 28 -152 89 -173 167 -30 108 76 225 223
247 29 5 273 7 542 6 427 -1 496 -3 533 -18z"/>
<path d="M442 3135 c-99 -31 -162 -103 -162 -184 0 -53 47 -114 120 -155 l55
-31 530 0 c602 0 589 -2 664 80 46 49 56 79 48 136 -7 56 -47 103 -114 136
l-58 28 -520 2 c-416 2 -529 -1 -563 -12z m80 -86 c38 -46 1 -129 -58 -129
-19 0 -23 -6 -26 -37 -3 -35 -6 -38 -35 -41 l-33 -3 0 114 c0 62 3 117 8 121
4 4 34 6 66 4 47 -4 63 -9 78 -29z m196 -1 c3 -27 2 -28 -42 -28 -34 0 -46 -4
-46 -15 0 -11 11 -15 41 -15 38 0 40 -1 37 -27 -3 -24 -8 -28 -40 -31 -25 -2
-38 -8 -38 -18 0 -10 13 -14 45 -14 43 0 45 -1 45 -30 l0 -30 -80 0 -80 0 0
113 c0 63 3 117 7 121 4 4 39 5 78 4 68 -3 70 -4 73 -30z m92 -58 l5 -85 43
-3 c39 -3 42 -5 42 -33 l0 -29 -75 0 -75 0 0 121 0 120 28 -3 c27 -3 27 -4 32
-88z m178 -32 l3 -118 -36 0 -35 0 0 113 c0 63 3 117 7 121 4 4 19 6 33 4 l25
-3 3 -117z m175 111 c25 -11 51 -52 40 -63 -10 -10 -52 -7 -72 6 -30 18 -51
-5 -51 -58 0 -46 17 -65 51 -57 26 7 24 23 -2 23 -16 0 -20 5 -17 28 3 25 6
27 48 27 l45 0 3 -51 c3 -46 0 -53 -25 -69 -15 -10 -46 -19 -70 -19 -59 -1
-94 34 -101 102 -10 106 65 170 151 131z m196 1 c19 -5 38 -15 43 -22 12 -20
9 -62 -7 -85 -13 -18 -12 -25 5 -61 27 -55 25 -62 -13 -62 -29 0 -36 5 -57 48
l-25 47 -3 -47 c-3 -47 -4 -48 -38 -48 l-34 0 0 113 c0 63 3 117 7 120 10 10
83 8 122 -3z m211 -5 c39 -20 53 -49 53 -110 0 -62 -22 -100 -66 -114 -95 -31
-168 76 -122 178 26 59 77 76 135 46z"/>
<path d="M440 3000 c0 -11 7 -20 15 -20 8 0 15 9 15 20 0 11 -7 20 -15 20 -8
0 -15 -9 -15 -20z"/>
<path d="M1300 2999 c0 -14 5 -19 17 -17 26 5 29 38 4 38 -15 0 -21 -6 -21
-21z"/>
<path d="M1500 3001 c-11 -22 -13 -61 -4 -85 7 -19 35 -21 52 -4 17 17 15 74
-4 92 -20 21 -31 20 -44 -3z"/>
<path d="M1038 3746 l-77 -81 42 0 c27 0 53 -8 73 -22 l30 -21 105 104 106
104 -101 -1 -101 -2 -77 -81z"/>
<path d="M1844 2632 l-101 -97 6 -87 6 -87 98 96 98 97 -3 87 -3 88 -101 -97z"/>
<path d="M157 2410 c-49 -47 -92 -86 -98 -88 -5 -2 -9 -54 -9 -115 l0 -112
100 101 101 100 -3 99 -3 100 -88 -85z"/>
<path d="M814 2467 c-10 -28 1 -180 14 -185 9 -3 12 13 12 58 0 73 12 71 50
-10 16 -33 30 -50 42 -50 16 0 18 10 18 100 0 82 -3 100 -15 100 -12 0 -15
-14 -15 -67 l0 -68 -37 68 c-36 64 -58 82 -69 54z"/>
<path d="M1014 2459 c-14 -16 -19 -36 -19 -81 0 -51 4 -63 24 -79 34 -27 82
-25 112 7 19 20 24 37 24 74 0 37 -5 54 -24 74 -31 33 -89 36 -117 5z m96 -28
c5 -11 10 -34 10 -51 0 -44 -17 -70 -44 -70 -29 0 -44 17 -52 58 -13 62 58
114 86 63z"/>
<path d="M1847 2225 l-98 -92 3 -91 3 -91 98 96 98 95 -3 88 -3 87 -98 -92z"/>
<path d="M516 2174 c-21 -21 -26 -36 -26 -75 0 -26 3 -55 6 -64 10 -25 62 -47
95 -40 41 9 59 40 59 103 0 43 -5 58 -25 77 -32 33 -75 33 -109 -1z m94 -33
c21 -40 8 -102 -25 -115 -44 -16 -78 49 -55 105 10 22 19 29 41 29 18 0 32 -7
39 -19z"/>
<path d="M698 2194 c-5 -4 -8 -49 -8 -101 0 -74 3 -93 14 -93 9 0 16 12 18 32
3 29 7 33 38 38 20 4 41 10 48 14 16 10 15 81 -2 95 -16 14 -98 26 -108 15z
m88 -49 c8 -20 -13 -45 -38 -45 -21 0 -33 22 -24 45 7 20 55 19 62 0z"/>
<path d="M867 2194 c-4 -4 -7 -49 -7 -101 l0 -93 66 0 c48 0 65 3 62 13 -3 6
-25 13 -51 15 -42 3 -47 6 -47 28 0 22 4 24 45 24 33 0 45 4 45 14 0 10 -14
16 -42 18 -36 2 -44 7 -46 26 -3 20 0 22 48 22 44 0 51 3 48 18 -2 13 -15 18
-58 20 -31 2 -59 0 -63 -4z"/>
<path d="M1038 2194 c-5 -4 -8 -49 -8 -101 0 -76 3 -93 15 -93 11 0 15 11 15
40 0 29 4 40 15 40 8 0 26 -18 40 -40 16 -25 33 -40 45 -40 18 0 19 3 9 23 -6
12 -18 29 -25 38 -12 14 -11 18 6 34 23 21 26 53 8 78 -14 18 -107 35 -120 21z
m90 -61 c3 -20 -1 -23 -32 -23 -32 0 -36 3 -36 26 0 23 3 25 33 22 24 -2 33
-8 35 -25z"/>
<path d="M1273 2188 c-10 -12 -63 -165 -63 -181 0 -16 29 -6 35 13 5 15 15 20
40 20 24 0 38 -6 45 -20 10 -19 40 -28 40 -12 -1 21 -67 186 -76 189 -6 2 -16
-2 -21 -9z m31 -95 c6 -19 3 -23 -13 -23 -22 0 -25 10 -14 49 6 25 14 18 27
-26z"/>
<path d="M1408 2194 c-5 -4 -8 -49 -8 -101 0 -86 1 -93 20 -93 17 0 20 7 20
40 0 22 4 40 10 40 13 0 48 -39 56 -62 3 -10 14 -18 25 -18 24 0 24 5 -2 47
-19 30 -20 36 -6 46 50 39 17 97 -59 104 -27 3 -52 1 -56 -3z m97 -59 c0 -15
-8 -21 -32 -23 -30 -3 -33 -1 -33 23 0 24 3 26 33 23 24 -2 32 -8 32 -23z"/>
<path d="M147 1916 l-97 -91 98 3 99 3 53 50 52 49 -50 0 -51 0 -3 39 -3 38
-98 -91z"/>
<path d="M595 1880 l-49 -50 95 0 95 0 49 50 49 50 -95 0 -95 0 -49 -50z"/>
<path d="M1065 1880 l-49 -50 95 0 95 0 49 50 49 50 -95 0 -95 0 -49 -50z"/>
<path d="M1495 1880 l-49 -50 90 0 90 0 55 50 54 49 -95 1 -96 0 -49 -50z"/>
<path d="M1915 1860 l-29 -30 32 0 c29 0 32 3 32 30 0 17 -1 30 -3 30 -2 0
-16 -13 -32 -30z"/>
<path d="M322 1703 c-13 -25 -4 -43 26 -54 19 -7 22 -13 14 -21 -8 -8 -15 -8
-27 2 -20 17 -32 5 -15 -15 17 -21 47 -19 60 5 8 15 6 24 -10 40 -11 11 -25
20 -32 20 -9 0 -9 3 0 12 8 8 15 8 27 -2 12 -10 15 -10 15 3 0 14 -20 27 -40
27 -5 0 -13 -8 -18 -17z"/>
<path d="M480 1666 c0 -30 5 -58 10 -61 6 -4 10 17 10 54 0 34 -4 61 -10 61
-5 0 -10 -24 -10 -54z"/>
<path d="M900 1700 c0 -13 -7 -20 -19 -20 -22 0 -34 -36 -21 -59 5 -9 20 -16
34 -16 25 -1 26 1 26 57 0 32 -4 58 -10 58 -5 0 -10 -9 -10 -20z m0 -55 c0
-26 -14 -33 -25 -15 -9 14 1 40 15 40 5 0 10 -11 10 -25z"/>
<path d="M1173 1693 c-11 -22 -2 -85 13 -90 7 -2 10 14 8 48 -4 59 -9 69 -21
42z"/>
<path d="M1607 1696 c-7 -17 3 -96 12 -96 10 0 10 99 1 105 -4 3 -10 -1 -13
-9z"/>
<path d="M1313 1683 c-7 -3 -13 -9 -13 -14 0 -4 7 -6 15 -3 8 4 15 2 15 -4 0
-5 -9 -12 -21 -15 -31 -8 -21 -42 14 -43 25 -1 27 2 27 36 0 37 -13 51 -37 43z"/>
<path d="M1543 1683 c-19 -7 -16 -33 5 -50 16 -14 16 -14 0 -9 -22 7 -24 -12
-2 -21 8 -3 23 2 32 11 16 16 15 18 -8 37 -16 14 -19 19 -7 15 9 -3 17 -1 17
3 0 11 -22 19 -37 14z"/>
<path d="M407 1674 c-13 -13 -7 -51 9 -65 23 -19 49 1 49 37 0 24 -5 30 -25
32 -14 2 -29 0 -33 -4z m40 -38 c-4 -9 -11 -16 -17 -16 -11 0 -14 33 -3 44 11
10 26 -11 20 -28z"/>
<path d="M518 1663 c-7 -26 8 -63 25 -63 22 0 39 26 35 52 -4 30 -53 39 -60
11z m45 -6 c3 -8 1 -20 -4 -28 -11 -19 -32 2 -23 24 7 20 20 22 27 4z"/>
<path d="M631 1623 c1 -32 3 -51 5 -43 3 9 15 20 27 25 16 7 22 19 22 40 0 25
-4 30 -27 33 -28 3 -28 3 -27 -55z m39 22 c0 -25 -14 -34 -24 -16 -8 12 3 41
15 41 5 0 9 -11 9 -25z"/>
<path d="M711 1643 c-1 -45 0 -46 37 -37 17 5 22 14 22 40 0 19 -4 34 -10 34
-5 0 -10 -14 -10 -31 0 -39 -22 -34 -31 7 -6 25 -7 24 -8 -13z"/>
<path d="M787 1674 c-12 -13 -8 -51 8 -64 8 -7 22 -9 32 -5 16 7 15 9 -7 15
l-25 8 23 7 c14 5 22 14 20 24 -3 17 -39 27 -51 15z"/>
<path d="M937 1658 c-11 -42 37 -81 51 -40 2 7 -2 10 -12 6 -9 -3 -16 -1 -16
5 0 6 7 11 15 11 8 0 15 9 15 20 0 29 -46 28 -53 -2z"/>
<path d="M1051 1637 l2 -42 6 34 c7 41 31 55 31 18 0 -28 23 -52 43 -44 8 3
14 21 15 40 l1 36 -49 -1 -50 0 1 -41z"/>
<path d="M1223 1645 c0 -22 2 -30 4 -17 2 12 2 30 0 40 -3 9 -5 -1 -4 -23z"/>
<path d="M1250 1639 c0 -24 4 -38 10 -34 6 3 10 16 10 29 0 12 5 27 12 34 9 9
7 12 -10 12 -19 0 -22 -5 -22 -41z"/>
<path d="M1370 1646 c0 -19 5 -38 10 -41 6 -4 10 6 10 22 0 16 5 34 12 41 9 9
7 12 -10 12 -18 0 -22 -6 -22 -34z"/>
<path d="M1457 1673 c-12 -12 -7 -50 8 -63 8 -7 22 -9 32 -5 16 7 15 9 -7 15
l-25 8 23 7 c30 10 30 45 -1 45 -13 0 -27 -3 -30 -7z"/>
<path d="M1645 1660 c-3 -10 -1 -29 5 -40 12 -22 40 -24 48 -2 2 7 -2 10 -12
6 -9 -3 -16 -1 -16 5 0 6 7 11 15 11 8 0 15 9 15 20 0 28 -46 28 -55 0z"/>
<path d="M681 1510 c-13 -61 -14 -81 -2 -60 11 18 26 110 18 110 -3 0 -10 -23
-16 -50z"/>
<path d="M877 1537 c-7 -19 3 -97 13 -97 7 0 5 98 -3 106 -2 3 -7 -2 -10 -9z"/>
<path d="M1000 1495 c0 -35 4 -54 10 -50 6 3 10 26 10 50 0 24 -4 47 -10 50
-6 4 -10 -15 -10 -50z"/>
<path d="M1153 1495 c-5 -30 -6 -55 -1 -55 4 0 8 6 8 13 1 6 5 31 9 55 5 23 5
42 1 42 -4 0 -11 -25 -17 -55z"/>
<path d="M1500 1536 c0 -8 -10 -16 -22 -18 -19 -2 -23 -9 -23 -38 0 -31 3 -35
28 -38 27 -3 27 -2 27 52 0 31 -2 56 -5 56 -3 0 -5 -6 -5 -14z m-6 -45 c8 -13
-4 -42 -15 -35 -12 7 -12 44 0 44 6 0 12 -4 15 -9z"/>
<path d="M1650 1535 c0 -8 -9 -15 -19 -15 -22 0 -35 -30 -26 -60 4 -14 15 -20
36 -20 29 0 29 1 29 55 0 30 -4 55 -10 55 -5 0 -10 -7 -10 -15z m0 -55 c0 -25
-18 -36 -26 -16 -8 21 3 49 16 41 5 -3 10 -15 10 -25z"/>
<path d="M210 1499 c0 -12 8 -23 20 -26 11 -3 20 -10 20 -15 0 -5 -9 -6 -20
-3 -12 4 -20 2 -20 -5 0 -6 12 -10 27 -8 35 4 45 37 14 45 -12 3 -21 9 -21 14
0 5 7 6 15 3 8 -4 15 -1 15 5 0 6 -11 11 -25 11 -19 0 -25 -5 -25 -21z"/>
<path d="M285 1501 c-3 -12 -3 -30 0 -41 7 -22 39 -27 51 -8 5 8 2 9 -9 5 -9
-3 -19 -2 -22 3 -4 6 3 10 15 10 16 0 21 5 18 23 -4 30 -44 36 -53 8z"/>
<path d="M367 1513 c-4 -3 -7 -20 -7 -36 0 -20 6 -30 20 -34 11 -3 20 -10 20
-15 0 -5 -9 -6 -20 -3 -24 8 -27 -10 -4 -19 28 -11 44 13 44 65 0 45 -2 49
-23 49 -13 0 -27 -3 -30 -7z m33 -34 c0 -20 -15 -26 -24 -10 -8 13 4 42 15 35
5 -3 9 -14 9 -25z"/>
<path d="M440 1480 c0 -38 2 -40 30 -40 28 0 30 2 30 40 0 22 -4 40 -10 40 -5
0 -10 -16 -10 -35 0 -19 -4 -35 -10 -35 -5 0 -10 16 -10 35 0 19 -4 35 -10 35
-5 0 -10 -18 -10 -40z"/>
<path d="M520 1480 c0 -22 5 -40 10 -40 6 0 10 14 10 30 0 17 5 30 10 30 6 0
10 5 10 10 0 6 -9 10 -20 10 -17 0 -20 -7 -20 -40z"/>
<path d="M570 1501 c-15 -29 4 -63 33 -59 18 2 22 10 22 38 0 28 -4 36 -22 38
-14 2 -26 -4 -33 -17z m40 -20 c0 -11 -4 -22 -9 -25 -11 -7 -23 22 -15 35 9
16 24 10 24 -10z"/>
<path d="M751 1478 c1 -40 1 -41 9 -15 5 16 14 35 21 43 9 11 8 14 -10 14 -18
0 -21 -6 -20 -42z"/>
<path d="M800 1505 c-26 -31 13 -82 44 -56 19 16 21 42 4 59 -16 16 -33 15
-48 -3z m38 -27 c-2 -13 -7 -23 -13 -23 -5 0 -11 10 -13 23 -2 15 2 22 13 22
11 0 15 -7 13 -22z"/>
<path d="M920 1480 c0 -38 2 -40 30 -40 28 0 30 2 30 40 0 22 -4 40 -10 40 -5
0 -10 -13 -10 -29 0 -17 -4 -33 -10 -36 -6 -4 -10 8 -10 29 0 20 -4 36 -10 36
-5 0 -10 -18 -10 -40z"/>
<path d="M1034 1506 c-12 -31 0 -61 25 -61 31 0 50 28 35 53 -14 22 -52 28
-60 8z m44 -28 c-2 -13 -7 -23 -13 -23 -5 0 -11 10 -13 23 -2 15 2 22 13 22
11 0 15 -7 13 -22z"/>
<path d="M1225 1500 c-10 -32 4 -62 28 -58 11 2 23 10 25 18 5 13 3 13 -11 1
-14 -11 -18 -11 -23 3 -10 25 3 47 22 39 12 -4 15 -3 10 5 -12 19 -44 14 -51
-8z"/>
<path d="M1300 1509 c0 -6 6 -9 14 -6 24 9 27 -6 3 -17 -31 -16 -28 -40 6 -44
26 -3 27 -1 27 37 0 37 -2 41 -25 41 -14 0 -25 -5 -25 -11z"/>
<path d="M1370 1480 c0 -48 17 -54 22 -7 4 41 21 38 28 -5 3 -22 8 -29 13 -20
5 7 6 26 2 42 -5 25 -12 30 -36 30 -27 0 -29 -2 -29 -40z"/>
<path d="M1534 1508 c-5 -8 -2 -9 9 -5 9 3 19 2 22 -2 2 -5 -4 -11 -15 -14
-12 -3 -20 -14 -20 -26 0 -17 6 -21 30 -21 25 0 30 4 30 24 0 13 -3 31 -6 40
-7 19 -40 21 -50 4z"/>
<path d="M1684 1506 c-12 -31 0 -61 25 -61 31 0 50 28 35 53 -14 22 -52 28
-60 8z m44 -28 c-2 -13 -7 -23 -13 -23 -5 0 -11 10 -13 23 -2 15 2 22 13 22
11 0 15 -7 13 -22z"/>
<path d="M190 1290 c0 -38 20 -60 20 -22 1 16 2 16 15 -2 7 -10 18 -15 24 -11
14 8 14 62 1 70 -6 4 -10 -6 -10 -22 l-1 -28 -17 28 c-23 37 -32 34 -32 -13z"/>
<path d="M451 1289 c-1 -42 1 -46 22 -45 18 1 22 7 22 31 0 20 -5 30 -15 30
-8 0 -18 7 -22 15 -4 8 -7 -6 -7 -31z m39 -15 c0 -17 -22 -14 -28 4 -2 7 3 12
12 12 9 0 16 -7 16 -16z"/>
<path d="M1190 1323 c317 -7 580 -7 580 0 0 4 -159 6 -352 5 -194 -1 -297 -4
-228 -5z"/>
<path d="M282 1298 c-16 -16 -15 -33 4 -48 22 -19 54 12 38 37 -14 22 -27 26
-42 11z m28 -23 c0 -8 -4 -15 -10 -15 -5 0 -10 7 -10 15 0 8 5 15 10 15 6 0
10 -7 10 -15z"/>
<path d="M358 1302 c-19 -4 -26 -52 -8 -52 6 0 10 9 10 20 0 28 20 25 21 -2 0
-22 1 -22 11 2 11 25 11 25 15 3 6 -32 25 -29 21 4 -3 27 -24 34 -70 25z"/>
<path d="M520 1271 c0 -38 14 -33 23 10 5 19 3 26 -8 26 -10 0 -15 -11 -15
-36z"/>
<path d="M573 1303 c-19 -7 -16 -50 3 -57 9 -3 21 -3 27 1 7 4 3 9 -9 14 -17
7 -17 8 -1 8 9 1 17 7 17 15 0 16 -19 25 -37 19z"/>
<path d="M1319 1218 c-84 -57 -99 -85 -106 -200 -3 -51 -10 -98 -15 -105 -11
-14 9 -133 26 -148 16 -14 46 -82 46 -105 0 -10 -3 -25 -6 -34 -8 -20 -162
-99 -180 -92 -11 4 -14 -12 -14 -84 l0 -90 350 0 350 0 -2 243 c-2 190 -3 208
-5 84 l-4 -159 -23 16 c-22 14 -24 14 -19 -4 3 -11 0 -20 -6 -20 -6 0 -11 11
-11 24 0 28 -26 42 -46 25 -11 -9 -14 -5 -14 24 0 39 -18 87 -32 87 -5 0 -6
16 -2 37 6 31 4 35 -9 30 -10 -4 -20 0 -25 10 -8 13 -20 15 -67 10 -31 -3 -63
-3 -71 0 -23 9 -16 26 9 20 22 -6 88 36 75 48 -3 3 -25 9 -49 13 -36 7 -43 12
-41 28 5 26 2 116 -4 126 -3 4 -21 10 -42 14 -65 12 -114 35 -102 49 5 6 7 15
4 18 -14 14 7 55 33 66 16 6 74 12 130 13 100 3 102 3 132 -26 31 -30 35 -43
62 -203 11 -64 14 -70 27 -56 10 9 11 17 5 21 -5 4 -13 50 -16 102 -6 111 -14
136 -58 181 -47 48 -93 70 -159 75 -54 4 -61 2 -121 -38z m77 -290 c8 -13 12
-67 4 -65 -3 0 -17 -5 -31 -12 -23 -11 -30 -10 -65 14 -21 15 -39 32 -39 38 0
7 23 17 50 23 66 16 73 16 81 2z m147 -219 c18 -22 17 -23 -2 -42 -16 -16 -27
-18 -66 -13 -57 9 -55 30 3 34 65 5 48 32 -19 32 -16 0 -29 5 -29 11 0 22 92
3 113 -22z"/>
<path d="M238 1155 c9 -19 17 -33 19 -31 6 5 -19 66 -27 66 -4 0 0 -16 8 -35z"/>
<path d="M201 1033 c1 -34 2 -35 9 -13 11 36 11 50 0 50 -5 0 -10 -17 -9 -37z"/>
<path d="M256 1054 c-4 -9 -4 -19 -1 -22 3 -3 6 1 6 9 1 8 5 -2 9 -21 l7 -35
2 43 c1 42 -11 56 -23 26z"/>
<path d="M660 1061 c20 -6 25 -14 25 -38 0 -17 3 -29 7 -26 12 7 9 48 -4 61
-7 7 -21 12 -32 11 -18 -1 -17 -2 4 -8z"/>
<path d="M316 1043 c7 -4 14 -19 17 -33 4 -22 5 -21 4 4 -1 17 -9 31 -17 33
-10 3 -11 2 -4 -4z"/>
<path d="M544 1035 c-3 -8 -4 -20 -1 -27 3 -7 6 -3 6 9 1 12 7 24 14 26 9 4 9
6 -1 6 -7 1 -15 -6 -18 -14z"/>
<path d="M722 1020 c0 -19 2 -27 5 -17 2 9 2 25 0 35 -3 9 -5 1 -5 -18z"/>
<path d="M755 1040 c-3 -5 0 -7 9 -4 10 4 16 -3 19 -23 4 -27 4 -27 6 5 1 31
-20 45 -34 22z"/>
<path d="M1524 1021 c-40 -10 -54 -19 -54 -36 0 -29 31 -45 85 -45 51 0 54 1
60 30 12 53 -16 69 -91 51z"/>
<path d="M197 843 c-14 -14 -7 -74 9 -80 37 -14 70 41 44 73 -13 15 -42 19
-53 7z m43 -38 c0 -16 -6 -25 -15 -25 -9 0 -15 9 -15 25 0 16 6 25 15 25 9 0
15 -9 15 -25z"/>
<path d="M282 805 c0 -41 2 -45 7 -20 7 30 7 30 19 8 20 -35 32 -27 31 20 -2
32 -3 35 -6 13 l-5 -29 -23 29 -24 29 1 -50z"/>
<path d="M363 810 c0 -25 2 -35 4 -22 2 12 2 32 0 45 -2 12 -4 2 -4 -23z"/>
<path d="M467 843 c-10 -9 -8 -71 2 -77 4 -3 8 10 7 29 0 19 4 33 9 32 6 -1
10 -14 10 -29 0 -14 3 -24 7 -21 12 7 9 48 -4 61 -14 14 -22 15 -31 5z"/>
<path d="M530 830 c0 -11 7 -20 15 -20 9 0 15 -9 15 -22 0 -19 2 -20 10 -8 7
11 4 20 -12 33 -18 15 -20 20 -7 28 11 7 11 9 -3 9 -11 0 -18 -8 -18 -20z"/>
<path d="M595 840 c-3 -5 0 -7 8 -4 24 9 28 -12 7 -31 -27 -24 -25 -45 3 -45
16 0 18 3 8 9 -11 7 -11 13 2 32 12 17 14 26 5 36 -13 15 -25 17 -33 3z"/>
<path d="M663 843 c-8 -3 -12 -20 -12 -41 1 -24 3 -29 6 -14 2 12 11 22 20 22
11 0 14 -6 9 -26 -5 -17 -3 -23 4 -19 18 11 11 47 -10 52 -11 3 -17 9 -15 14
3 4 13 5 22 2 11 -4 14 -3 9 5 -8 13 -13 14 -33 5z"/>
<path d="M724 838 c-16 -26 -14 -66 4 -73 14 -5 15 -4 5 6 -19 19 -16 29 8 29
16 0 20 -4 14 -17 -4 -13 -3 -15 4 -8 12 12 0 67 -16 72 -6 2 -15 -2 -19 -9z"/>
<path d="M784 836 c-3 -8 -4 -27 -1 -43 3 -23 4 -21 6 11 1 30 4 37 17 32 8
-3 12 -2 9 4 -9 14 -25 12 -31 -4z"/>
<path d="M853 842 c-18 -11 -21 -72 -4 -72 5 0 8 7 7 16 -2 26 22 28 27 2 l4
-23 2 23 c1 16 -6 26 -19 29 -11 3 -17 10 -14 15 3 5 13 7 21 4 8 -3 11 -1 8
4 -7 12 -16 12 -32 2z"/>
<path d="M915 841 c-4 -7 0 -8 11 -4 13 5 16 3 11 -10 -7 -20 7 -65 16 -50 8
13 -6 66 -20 70 -6 2 -14 -1 -18 -6z"/>
<path d="M190 530 c0 -22 5 -40 10 -40 6 0 10 7 10 15 0 8 7 15 15 15 21 0 19
18 -2 23 -15 3 -14 6 7 15 25 11 25 11 -7 11 -32 1 -33 0 -33 -39z"/>
<path d="M390 530 c0 -22 5 -40 10 -40 6 0 10 9 10 20 0 27 18 25 23 -2 4 -21
4 -20 6 3 1 18 -7 32 -24 43 l-25 16 0 -40z"/>
<path d="M576 547 c-35 -28 -30 -57 9 -57 23 0 25 4 25 40 0 22 -1 40 -2 40
-2 0 -16 -11 -32 -23z m14 -32 c0 -8 -4 -15 -10 -15 -5 0 -10 7 -10 15 0 8 5
15 10 15 6 0 10 -7 10 -15z"/>
<path d="M264 536 c-9 -24 3 -46 26 -46 17 0 21 5 18 27 -3 31 -34 44 -44 19z"/>
<path d="M331 536 c-6 -7 -9 -21 -5 -30 7 -17 44 -23 44 -6 0 6 -5 9 -11 8 -6
-2 -14 3 -16 10 -3 6 3 12 12 12 9 0 13 5 10 10 -9 14 -20 13 -34 -4z"/>
<path d="M466 542 c-3 -6 1 -12 9 -16 8 -3 15 -11 14 -18 0 -10 -2 -10 -6 0
-7 17 -23 15 -23 -3 0 -9 10 -15 26 -15 22 0 25 4 22 27 -3 28 -30 43 -42 25z"/>
<path d="M630 535 c-17 -20 -6 -45 20 -45 17 0 21 5 18 27 -4 31 -20 40 -38
18z"/>
<path d="M190 449 c0 -28 22 -80 33 -76 11 3 40 77 33 85 -3 2 -11 -9 -19 -24
l-14 -28 -16 30 c-10 17 -16 22 -17 13z"/>
<path d="M767 443 c-7 -12 4 -73 13 -73 4 0 7 16 5 36 -4 38 -10 51 -18 37z"/>
<path d="M266 414 c-12 -31 33 -60 50 -32 5 8 2 9 -9 5 -9 -3 -19 -2 -22 3 -4
6 3 10 15 10 27 0 21 24 -7 28 -12 2 -23 -4 -27 -14z"/>
<path d="M330 406 c0 -14 5 -28 10 -31 6 -4 10 5 10 19 0 35 18 33 22 -1 4
-23 6 -25 12 -10 12 26 0 47 -29 47 -20 0 -25 -5 -25 -24z"/>
<path d="M404 415 c-13 -32 24 -63 41 -35 3 6 -1 10 -9 10 -22 0 -20 27 2 33
12 4 11 5 -6 6 -12 0 -25 -6 -28 -14z"/>
<path d="M472 400 c0 -19 2 -27 5 -17 2 9 2 25 0 35 -3 9 -5 1 -5 -18z"/>
<path d="M501 398 c1 -22 3 -26 6 -13 7 31 23 42 23 18 0 -12 5 -25 10 -28 6
-4 10 5 10 19 0 35 18 33 22 -1 4 -23 6 -25 12 -10 14 31 0 47 -44 47 -39 0
-40 -1 -39 -32z"/>
<path d="M600 399 c0 -17 4 -28 10 -24 6 3 10 17 10 31 0 13 -4 24 -10 24 -5
0 -10 -14 -10 -31z"/>
<path d="M634 416 c-13 -35 24 -64 42 -34 5 8 2 9 -9 5 -10 -3 -17 -2 -17 3 0
6 7 10 16 10 20 0 13 24 -9 28 -10 2 -20 -4 -23 -12z"/>
<path d="M701 398 c2 -31 2 -31 6 -5 5 31 23 37 23 8 0 -11 5 -23 10 -26 6 -4
10 7 10 24 0 26 -4 31 -25 31 -22 0 -25 -4 -24 -32z"/>
<path d="M804 415 c-4 -9 0 -23 9 -32 21 -21 49 -9 45 19 -4 28 -45 38 -54 13z
m36 -10 c0 -8 -4 -15 -10 -15 -5 0 -10 7 -10 15 0 8 5 15 10 15 6 0 10 -7 10
-15z"/>
<path d="M388 183 c111 -2 293 -2 405 0 111 1 20 2 -203 2 -223 0 -314 -1
-202 -2z"/>
</g>
</svg>
